[gd_scene load_steps=2 format=2]

[ext_resource path="res://player.gd" type="Script" id=1]

[node name="player" type="Node2D"]
script = ExtResource( 1 )

[node name="ColorRect" type="ColorRect" parent="."]
margin_right = 40.0
margin_bottom = 40.0
__meta__ = {
"_edit_use_anchors_": false
}
